G:\Storage\PJWSTK\JAZ_2\ZAD_2\src\main\java\web\filters\AdminFilter.java
G:\Storage\PJWSTK\JAZ_2\ZAD_2\src\main\java\domain\UserInformation.java
G:\Storage\PJWSTK\JAZ_2\ZAD_2\src\main\java\web\filters\PremiumFilter.java
G:\Storage\PJWSTK\JAZ_2\ZAD_2\src\main\java\web\filters\UserFilter.java
G:\Storage\PJWSTK\JAZ_2\ZAD_2\src\main\java\servlets\AddUserServlet.java
G:\Storage\PJWSTK\JAZ_2\ZAD_2\src\main\java\servlets\ShowUserListServlet.java
G:\Storage\PJWSTK\JAZ_2\ZAD_2\src\main\java\repositories\UserList.java
G:\Storage\PJWSTK\JAZ_2\ZAD_2\src\main\java\repositories\UserInformationRepository.java
G:\Storage\PJWSTK\JAZ_2\ZAD_2\src\main\java\servlets\UserLoginServlet.java
G:\Storage\PJWSTK\JAZ_2\ZAD_2\src\main\java\servlets\UserPremiumServlet.java
G:\Storage\PJWSTK\JAZ_2\ZAD_2\src\main\java\servlets\ChangePermissionServlet.java
